<?xml version="1.0" encoding="utf-8"?>
<!-- Generator: Adobe Illustrator 23.0.0, SVG Export Plug-In . SVG Version: 6.00 Build 0)  -->
<svg version="1.1" id="Layer_1" xmlns="http://www.w3.org/2000/svg" xmlns:xlink="http://www.w3.org/1999/xlink" x="0px" y="0px"
	 viewBox="0 0 841.9 595.3" style="enable-background:new 0 0 841.9 595.3;" xml:space="preserve">
<style type="text/css">
	.st0{fill:#FFFFFF;}
	.st1{fill:#FAA31B;}
</style>
<g>
	<g>
		<g>
			<path class="st0" d="M255.7,302c-2.5-2.6-3.7-6.2-3.7-10.7v-26.1c0-5.6,1.1-9.9,3.4-12.7c2.2-2.9,5.8-4.3,10.6-4.3
				c4.2,0,7.5,1.1,10.1,3.4c2.6,2.3,3.8,5.6,3.8,9.9v9.8h-11.3v-8.4c0-1.6-0.2-2.7-0.6-3.4c-0.4-0.6-1.1-0.9-2-0.9
				c-1,0-1.7,0.4-2.1,1.1c-0.4,0.7-0.6,1.7-0.6,3.1v28.4c0,1.5,0.2,2.6,0.7,3.3c0.4,0.7,1.1,1,2,1c1.8,0,2.6-1.4,2.6-4.3V281H280
				v10.7c0,9.5-4.8,14.3-14.3,14.3C261.5,305.9,258.2,304.6,255.7,302z"/>
			<path class="st0" d="M293.4,301.7c-2.4-2.8-3.6-6.7-3.6-11.8v-27c0-4.9,1.2-8.6,3.6-11.1c2.4-2.5,5.8-3.7,10.4-3.7
				c4.6,0,8.1,1.2,10.4,3.7c2.4,2.5,3.6,6.2,3.6,11.1v27c0,5.1-1.2,9-3.6,11.8c-2.4,2.8-5.8,4.2-10.4,4.2
				C299.3,305.9,295.8,304.5,293.4,301.7z M305.9,294.2c0.4-0.9,0.5-2.1,0.5-3.7v-27.7c0-1.2-0.2-2.2-0.5-3c-0.3-0.8-1-1.2-2-1.2
				c-1.9,0-2.8,1.4-2.8,4.3v27.6c0,1.6,0.2,2.9,0.6,3.7c0.4,0.8,1.1,1.3,2.2,1.3C304.8,295.5,305.5,295.1,305.9,294.2z"/>
			<path class="st0" d="M329,305.4v-56.7h11.3v47H352v9.6H329z"/>
			<path class="st0" d="M361.8,305.4v-56.7h11.4v47h11.7v9.6H361.8z"/>
			<path class="st0" d="M394.6,305.4v-56.7h22.7v11h-11.2v11h10.7v10.7h-10.7v13H418v11H394.6z"/>
			<path class="st0" d="M431.6,302c-2.5-2.6-3.7-6.2-3.7-10.7v-26.1c0-5.6,1.1-9.9,3.4-12.7c2.2-2.9,5.8-4.3,10.6-4.3
				c4.2,0,7.5,1.1,10.1,3.4c2.6,2.3,3.8,5.6,3.8,9.9v9.8h-11.3v-8.4c0-1.6-0.2-2.7-0.6-3.4c-0.4-0.6-1.1-0.9-2-0.9
				c-1,0-1.7,0.4-2.1,1.1c-0.4,0.7-0.6,1.7-0.6,3.1v28.4c0,1.5,0.2,2.6,0.7,3.3c0.4,0.7,1.1,1,2,1c1.8,0,2.6-1.4,2.6-4.3V281h11.4
				v10.7c0,9.5-4.8,14.3-14.3,14.3C437.4,305.9,434.1,304.6,431.6,302z"/>
			<path class="st0" d="M471.1,305.4v-45.8h-6.7v-10.9h24.8v10.9h-6.7v45.8H471.1z"/>
			<path class="st0" d="M498.4,305.4v-56.7h11v56.7H498.4z"/>
			<path class="st0" d="M525.7,305.4l-7-56.7h10.8l4.2,38.6l3.7-38.6h10.8l-7,56.7H525.7z"/>
			<path class="st0" d="M558.1,305.4v-56.7h22.7v11h-11.2v11h10.7v10.7h-10.7v13h11.9v11H558.1z"/>
			<path class="st0" d="M613.9,305.4v-56.7h22.7v11h-11.2v11h10.7v10.7h-10.7v13h11.9v11H613.9z"/>
			<path class="st0" d="M663.7,305.5c-1.7,0.3-2.6,0.5-2.8,0.5c-4.6,0-8-1.3-10.4-3.9c-2.4-2.6-3.6-6.5-3.6-11.5v-27.4
				c0-4.9,1.2-8.6,3.6-11.1c2.4-2.5,5.9-3.8,10.4-3.8s8,1.3,10.4,3.8c2.4,2.5,3.6,6.2,3.6,11.1v27.4c0,4.7-1.1,8.4-3.2,11.1l4.9,3.1
				l-3.8,6.7L663.7,305.5z M663,293.9c0.3-1.1,0.5-2.4,0.5-4.1v-26.5c0-1.5-0.2-2.6-0.6-3.4c-0.4-0.8-1.1-1.3-2.1-1.3
				c-1.8,0-2.7,1.5-2.7,4.6V290c0,1.6,0.2,2.9,0.5,3.9s1.1,1.6,2.2,1.6C662,295.5,662.7,295,663,293.9z"/>
			<path class="st0" d="M689.6,302c-2.3-2.6-3.4-6.6-3.4-11.7v-41.5h11v41c0,1.8,0.2,3.2,0.5,4.2c0.4,1,1.1,1.5,2.2,1.5
				s1.9-0.5,2.2-1.5c0.3-1,0.5-2.4,0.5-4.3v-41h11v41.5c0,5.2-1.1,9.1-3.4,11.7c-2.3,2.6-5.7,4-10.4,4S691.9,304.6,689.6,302z"/>
			<path class="st0" d="M724.2,305.4v-56.7h11v56.7H724.2z"/>
			<path class="st0" d="M751.2,305.4v-45.8h-6.7v-10.9h24.8v10.9h-6.7v45.8H751.2z"/>
			<path class="st0" d="M785.9,305.4v-18.7l-9-38h11.2l3.2,19.2l3.2-19.2h11.2l-9,38v18.7H785.9z"/>
		</g>
	</g>
	<g>
		<path class="st1" d="M279.7,324.5l-6.2,18.1h-1.2l-5.1-16.6l-5.1,16.6h-1.2l-6.2-18.1h1.1l5.7,16.5l5-16.5h1.4l5,16.5l5.7-16.5
			H279.7z"/>
		<path class="st1" d="M301.6,324.5v1h-9.7v7.1h9.7v1h-9.7v7.9h9.8v1h-10.9v-18.1H301.6z"/>
		<path class="st1" d="M320.5,324.5l7.9,18.1h-1.2l-2.7-6.1h-9.4l-2.7,6.1h-1.2l7.9-18.1H320.5z M319.9,325.7l-4.2,9.7h8.5
			L319.9,325.7z"/>
		<path class="st1" d="M340.6,324.5v17.1h9.4v1h-10.5v-18.1H340.6z"/>
		<path class="st1" d="M370.2,324.5v1h-5.8v17.1h-1.1v-17.1h-5.8v-1H370.2z"/>
		<path class="st1" d="M393.2,324.4h1.1v18.1h-1.1v-9h-10.8v9h-1.1v-18.1h1.1v8.1h10.8V324.4z"/>
		<path class="st1" d="M436.3,324.5v1h-5.8v17.1h-1.1v-17.1h-5.8v-1H436.3z"/>
		<path class="st1" d="M459.3,324.4h1.1v18.1h-1.1v-9h-10.8v9h-1.1v-18.1h1.1v8.1h10.8V324.4z"/>
		<path class="st1" d="M479.1,324.4c3.1,0,5.4,1.9,5.4,4.9c0,2.8-2,4.6-4.7,4.9l5.4,8.3h-1.3l-5.3-8.3h-4.3v8.3h-1.1v-18.1
			L479.1,324.4z M479.1,333.2c2.5,0,4.3-1.5,4.3-3.8c0-2.4-1.9-3.8-4.3-3.8h-4.8v7.7H479.1z"/>
		<path class="st1" d="M514.1,333.5c0,5.1-4.2,9.3-9.3,9.3s-9.3-4.1-9.3-9.3c0-5.1,4.2-9.3,9.3-9.3S514.1,328.4,514.1,333.5z
			 M496.6,333.5c0,4.6,3.7,8.2,8.2,8.2s8.2-3.7,8.2-8.2c0-4.6-3.7-8.2-8.2-8.2S496.6,329,496.6,333.5z"/>
		<path class="st1" d="M538.5,324.5h1.1V336c0,3.7-3,6.8-6.9,6.8c-3.9,0-6.9-3.1-6.9-6.8v-11.5h1.1v11.4c0,3.2,2.6,5.8,5.8,5.8
			c3.2,0,5.8-2.6,5.8-5.8V324.5z"/>
		<path class="st1" d="M566.2,340.8c-1.6,1.3-3.6,2-5.8,2c-5.1,0-9.3-4.1-9.3-9.3s4.2-9.3,9.3-9.3c2.2,0,4.2,0.8,5.8,2l-0.8,0.8
			c-1.4-1.1-3.2-1.7-5-1.7c-4.6,0-8.2,3.7-8.2,8.2c0,4.6,3.7,8.2,8.2,8.2c1.7,0,3.4-0.5,4.7-1.5v-6.3h1.1V340.8z"/>
		<path class="st1" d="M590.7,324.4h1.1v18.1h-1.1v-9h-10.8v9h-1.1v-18.1h1.1v8.1h10.8V324.4z"/>
		<path class="st1" d="M627.8,324.4c3.2,0,5.5,2,5.5,5.2c0,3.2-2.3,5.2-5.5,5.2H623v7.8h-1.1v-18.1H627.8z M627.8,333.7
			c2.6,0,4.4-1.6,4.4-4.1c0-2.5-1.9-4.1-4.4-4.1H623v8.2H627.8z"/>
		<path class="st1" d="M650.9,324.4c3.1,0,5.4,1.9,5.4,4.9c0,2.8-2,4.6-4.7,4.9l5.4,8.3h-1.3l-5.3-8.3H646v8.3H645v-18.1
			L650.9,324.4z M650.9,333.2c2.5,0,4.3-1.5,4.3-3.8c0-2.4-1.9-3.8-4.3-3.8H646v7.7H650.9z"/>
		<path class="st1" d="M685.9,333.5c0,5.1-4.2,9.3-9.3,9.3c-5.1,0-9.3-4.1-9.3-9.3c0-5.1,4.2-9.3,9.3-9.3
			C681.7,324.2,685.9,328.4,685.9,333.5z M668.4,333.5c0,4.6,3.7,8.2,8.2,8.2s8.2-3.7,8.2-8.2c0-4.6-3.7-8.2-8.2-8.2
			S668.4,329,668.4,333.5z"/>
		<path class="st1" d="M703.7,324.4c3.2,0,5.5,2,5.5,5.2c0,3.2-2.3,5.2-5.5,5.2H699v7.8h-1.1v-18.1H703.7z M703.7,333.7
			c2.6,0,4.4-1.6,4.4-4.1c0-2.5-1.9-4.1-4.4-4.1H699v8.2H703.7z"/>
		<path class="st1" d="M731.6,324.5v1h-9.7v7.1h9.7v1h-9.7v7.9h9.8v1h-10.9v-18.1H731.6z"/>
		<path class="st1" d="M749.2,324.4c3.1,0,5.4,1.9,5.4,4.9c0,2.8-2,4.6-4.7,4.9l5.4,8.3H754l-5.3-8.3h-4.3v8.3h-1.1v-18.1
			L749.2,324.4z M749.2,333.2c2.5,0,4.3-1.5,4.3-3.8c0-2.4-1.9-3.8-4.3-3.8h-4.8v7.7H749.2z"/>
		<path class="st1" d="M777.3,324.5v1h-5.8v17.1h-1.1v-17.1h-5.8v-1H777.3z"/>
		<path class="st1" d="M801.5,324.5l-6.8,10.4v7.7h-1.1v-7.7l-6.8-10.4h1.2l6.1,9.4l6.2-9.4H801.5z"/>
	</g>
	<polygon class="st0" points="173,304.6 150.5,294.1 150.5,362.2 173,362.2 	"/>
	<polygon class="st1" points="150.5,313.4 150.5,294.1 111.7,307.6 111.7,362 150.5,362 150.5,330 150.5,330.1 173,330.1 173,320.9 
			"/>
	<polygon class="st0" points="128.2,232.6 79,204.6 79,362.7 128.2,362.7 	"/>
	<polygon class="st1" points="79,361.3 79,303.7 128.2,298 128.2,287.3 79,276.8 79,250.4 128.2,262 128.2,253.3 79,231.3 79,204.6 
		35.2,221.7 35.2,361.3 35.2,362 35.2,368.6 173,368.6 173,361.3 	"/>
</g>
</svg>
